"Ajatempel (UTC)";"Kuupäev (Eesti aeg)";"NPS Eesti"
"1640995200";"01.01.2022 02:00";"41,33"
"1640998800";"01.01.2022 03:00";"42,18"
"1641002400";"01.01.2022 04:00";"44,37"
"1641006000";"01.01.2022 05:00";"37,67"
"1641009600";"01.01.2022 06:00";"39,7"
"1641013200";"01.01.2022 07:00";"40,59"
"1641016800";"01.01.2022 08:00";"43,26"
"1641020400";"01.01.2022 09:00";"49,66"
"1641024000";"01.01.2022 10:00";"70,05"
"1641027600";"01.01.2022 11:00";"76,79"
"1641031200";"01.01.2022 12:00";"84,1"
"1641034800";"01.01.2022 13:00";"94,74"
"1641038400";"01.01.2022 14:00";"96,8"
"1641042000";"01.01.2022 15:00";"97,17"
"1641045600";"01.01.2022 16:00";"101,27"
"1641049200";"01.01.2022 17:00";"126,6"
"1641052800";"01.01.2022 18:00";"149,97"
"1641056400";"01.01.2022 19:00";"146,33"
"1641060000";"01.01.2022 20:00";"140,28"
"1641063600";"01.01.2022 21:00";"121,88"
"1641067200";"01.01.2022 22:00";"102,61"
"1641070800";"01.01.2022 23:00";"97,46"
"1641074400";"02.01.2022 00:00";"85,16"
"1641078000";"02.01.2022 01:00";"57,08"
"1641081600";"02.01.2022 02:00";"55,09"
"1641085200";"02.01.2022 03:00";"52,82"
"1641088800";"02.01.2022 04:00";"34,94"
"1641092400";"02.01.2022 05:00";"29,56"
"1641096000";"02.01.2022 06:00";"53,01"
"1641099600";"02.01.2022 07:00";"34,52"
"1641103200";"02.01.2022 08:00";"41,8"
"1641106800";"02.01.2022 09:00";"48,95"
"1641110400";"02.01.2022 10:00";"60,01"
"1641114000";"02.01.2022 11:00";"70,09"
"1641117600";"02.01.2022 12:00";"66,26"
"1641121200";"02.01.2022 13:00";"64,54"
"1641124800";"02.01.2022 14:00";"46,96"
"1641128400";"02.01.2022 15:00";"65,19"
"1641132000";"02.01.2022 16:00";"81,09"
"1641135600";"02.01.2022 17:00";"88,46"
"1641139200";"02.01.2022 18:00";"95,4"
"1641142800";"02.01.2022 19:00";"86,71"
"1641146400";"02.01.2022 20:00";"71,72"
"1641150000";"02.01.2022 21:00";"56,73"
"1641153600";"02.01.2022 22:00";"46,16"
"1641157200";"02.01.2022 23:00";"46,29"
"1641160800";"03.01.2022 00:00";"32,93"
"1641164400";"03.01.2022 01:00";"20,89"
"1641168000";"03.01.2022 02:00";"19,92"
"1641171600";"03.01.2022 03:00";"19,87"
"1641175200";"03.01.2022 04:00";"19,82"
"1641178800";"03.01.2022 05:00";"20,26"
"1641182400";"03.01.2022 06:00";"29,35"
"1641186000";"03.01.2022 07:00";"80"
"1641189600";"03.01.2022 08:00";"106,87"
"1641193200";"03.01.2022 09:00";"131,47"
"1641196800";"03.01.2022 10:00";"135,53"
"1641200400";"03.01.2022 11:00";"107,46"
"1641204000";"03.01.2022 12:00";"110,08"
"1641207600";"03.01.2022 13:00";"119,78"
"1641211200";"03.01.2022 14:00";"117"
"1641214800";"03.01.2022 15:00";"111,57"
"1641218400";"03.01.2022 16:00";"111,39"
"1641222000";"03.01.2022 17:00";"124,51"
"1641225600";"03.01.2022 18:00";"148,49"
"1641229200";"03.01.2022 19:00";"138"
"1641232800";"03.01.2022 20:00";"117,64"
"1641236400";"03.01.2022 21:00";"117,71"
"1641240000";"03.01.2022 22:00";"95,95"
"1641243600";"03.01.2022 23:00";"105,68"
"1641247200";"04.01.2022 00:00";"95,26"
"1641250800";"04.01.2022 01:00";"103,7"
"1641254400";"04.01.2022 02:00";"104,14"
"1641258000";"04.01.2022 03:00";"102,59"
"1641261600";"04.01.2022 04:00";"100,49"
"1641265200";"04.01.2022 05:00";"102,71"
"1641268800";"04.01.2022 06:00";"93,97"
"1641272400";"04.01.2022 07:00";"130,08"
"1641276000";"04.01.2022 08:00";"182,64"
"1641279600";"04.01.2022 09:00";"174,61"
"1641283200";"04.01.2022 10:00";"183,6"
"1641286800";"04.01.2022 11:00";"183,65"
"1641290400";"04.01.2022 12:00";"164,62"
"1641294000";"04.01.2022 13:00";"178,08"
"1641297600";"04.01.2022 14:00";"175,28"
"1641301200";"04.01.2022 15:00";"174,7"
"1641304800";"04.01.2022 16:00";"180,93"
"1641308400";"04.01.2022 17:00";"166,69"
"1641312000";"04.01.2022 18:00";"183,69"
"1641315600";"04.01.2022 19:00";"180,5"
"1641319200";"04.01.2022 20:00";"153,88"
"1641322800";"04.01.2022 21:00";"146,81"
"1641326400";"04.01.2022 22:00";"128,75"
"1641330000";"04.01.2022 23:00";"112,96"
"1641333600";"05.01.2022 00:00";"84,11"
"1641337200";"05.01.2022 01:00";"105,31"
"1641340800";"05.01.2022 02:00";"97,29"
"1641344400";"05.01.2022 03:00";"84,5"
"1641348000";"05.01.2022 04:00";"75,38"
"1641351600";"05.01.2022 05:00";"79,11"
"1641355200";"05.01.2022 06:00";"94,79"
"1641358800";"05.01.2022 07:00";"121,92"
"1641362400";"05.01.2022 08:00";"139,9"
"1641366000";"05.01.2022 09:00";"147,74"
"1641369600";"05.01.2022 10:00";"141,47"
"1641373200";"05.01.2022 11:00";"135,97"
"1641376800";"05.01.2022 12:00";"129,99"
"1641380400";"05.01.2022 13:00";"150,31"
"1641384000";"05.01.2022 14:00";"134,71"
"1641387600";"05.01.2022 15:00";"149,92"
"1641391200";"05.01.2022 16:00";"160,01"
"1641394800";"05.01.2022 17:00";"137,28"
"1641398400";"05.01.2022 18:00";"148,09"
"1641402000";"05.01.2022 19:00";"139,88"
"1641405600";"05.01.2022 20:00";"135,75"
"1641409200";"05.01.2022 21:00";"119,93"
"1641412800";"05.01.2022 22:00";"98,09"
"1641416400";"05.01.2022 23:00";"118,71"
"1641420000";"06.01.2022 00:00";"97,29"
"1641423600";"06.01.2022 01:00";"98,46"
"1641427200";"06.01.2022 02:00";"92,92"
"1641430800";"06.01.2022 03:00";"90,99"
"1641434400";"06.01.2022 04:00";"88,94"
"1641438000";"06.01.2022 05:00";"89,31"
"1641441600";"06.01.2022 06:00";"89,75"
"1641445200";"06.01.2022 07:00";"97,06"
"1641448800";"06.01.2022 08:00";"110,87"
"1641452400";"06.01.2022 09:00";"136,88"
"1641456000";"06.01.2022 10:00";"205,87"
"1641459600";"06.01.2022 11:00";"209,25"
"1641463200";"06.01.2022 12:00";"224,71"
"1641466800";"06.01.2022 13:00";"218,99"
"1641470400";"06.01.2022 14:00";"202,71"
"1641474000";"06.01.2022 15:00";"209,36"
"1641477600";"06.01.2022 16:00";"225,23"
"1641481200";"06.01.2022 17:00";"245,95"
"1641484800";"06.01.2022 18:00";"264,74"
"1641488400";"06.01.2022 19:00";"270,07"
"1641492000";"06.01.2022 20:00";"220,32"
"1641495600";"06.01.2022 21:00";"217,91"
"1641499200";"06.01.2022 22:00";"203,31"
"1641502800";"06.01.2022 23:00";"171,31"
"1641506400";"07.01.2022 00:00";"124,7"
"1641510000";"07.01.2022 01:00";"128,92"
"1641513600";"07.01.2022 02:00";"116,65"
"1641517200";"07.01.2022 03:00";"100,54"
"1641520800";"07.01.2022 04:00";"99,47"
"1641524400";"07.01.2022 05:00";"101,74"
"1641528000";"07.01.2022 06:00";"114,99"
"1641531600";"07.01.2022 07:00";"140,19"
"1641535200";"07.01.2022 08:00";"170,53"
"1641538800";"07.01.2022 09:00";"175,66"
"1641542400";"07.01.2022 10:00";"161,85"
"1641546000";"07.01.2022 11:00";"161,37"
"1641549600";"07.01.2022 12:00";"166,06"
"1641553200";"07.01.2022 13:00";"166,54"
"1641556800";"07.01.2022 14:00";"166,04"
"1641560400";"07.01.2022 15:00";"169,43"
"1641564000";"07.01.2022 16:00";"189,7"
"1641567600";"07.01.2022 17:00";"201,97"
"1641571200";"07.01.2022 18:00";"243,11"
"1641574800";"07.01.2022 19:00";"247,72"
"1641578400";"07.01.2022 20:00";"200,89"
"1641582000";"07.01.2022 21:00";"224,33"
"1641585600";"07.01.2022 22:00";"213,81"
"1641589200";"07.01.2022 23:00";"185,94"
"1641592800";"08.01.2022 00:00";"144,76"
"1641596400";"08.01.2022 01:00";"160,71"
"1641600000";"08.01.2022 02:00";"146,08"
"1641603600";"08.01.2022 03:00";"144,64"
"1641607200";"08.01.2022 04:00";"146,9"
"1641610800";"08.01.2022 05:00";"150,07"
"1641614400";"08.01.2022 06:00";"154,3"
"1641618000";"08.01.2022 07:00";"166"
"1641621600";"08.01.2022 08:00";"182,91"
"1641625200";"08.01.2022 09:00";"182,03"
"1641628800";"08.01.2022 10:00";"181,02"
"1641632400";"08.01.2022 11:00";"170,04"
"1641636000";"08.01.2022 12:00";"158,5"
"1641639600";"08.01.2022 13:00";"158,79"
"1641643200";"08.01.2022 14:00";"156,07"
"1641646800";"08.01.2022 15:00";"156,18"
"1641650400";"08.01.2022 16:00";"173,88"
"1641654000";"08.01.2022 17:00";"182,94"
"1641657600";"08.01.2022 18:00";"189,9"
"1641661200";"08.01.2022 19:00";"182,94"
"1641664800";"08.01.2022 20:00";"149,96"
"1641668400";"08.01.2022 21:00";"145,06"
"1641672000";"08.01.2022 22:00";"160,04"
"1641675600";"08.01.2022 23:00";"126,06"
"1641679200";"09.01.2022 00:00";"114,11"
"1641682800";"09.01.2022 01:00";"85,03"
"1641686400";"09.01.2022 02:00";"84,4"
"1641690000";"09.01.2022 03:00";"82,74"
"1641693600";"09.01.2022 04:00";"84,5"
"1641697200";"09.01.2022 05:00";"110,19"
"1641700800";"09.01.2022 06:00";"120,02"
"1641704400";"09.01.2022 07:00";"120"
"1641708000";"09.01.2022 08:00";"119,92"
"1641711600";"09.01.2022 09:00";"97,26"
"1641715200";"09.01.2022 10:00";"119,97"
"1641718800";"09.01.2022 11:00";"134,96"
"1641722400";"09.01.2022 12:00";"149,4"
"1641726000";"09.01.2022 13:00";"165,13"
"1641729600";"09.01.2022 14:00";"165,06"
"1641733200";"09.01.2022 15:00";"170,09"
"1641736800";"09.01.2022 16:00";"182,91"
"1641740400";"09.01.2022 17:00";"190,96"
"1641744000";"09.01.2022 18:00";"223,3"
"1641747600";"09.01.2022 19:00";"243,19"
"1641751200";"09.01.2022 20:00";"209,65"
"1641754800";"09.01.2022 21:00";"155,07"
"1641758400";"09.01.2022 22:00";"171,18"
"1641762000";"09.01.2022 23:00";"170,03"
"1641765600";"10.01.2022 00:00";"144,79"
"1641769200";"10.01.2022 01:00";"144,28"
"1641772800";"10.01.2022 02:00";"138,09"
"1641776400";"10.01.2022 03:00";"133,81"
"1641780000";"10.01.2022 04:00";"136,44"
"1641783600";"10.01.2022 05:00";"142,99"
"1641787200";"10.01.2022 06:00";"182,94"
"1641790800";"10.01.2022 07:00";"248,5"
"1641794400";"10.01.2022 08:00";"299,95"
"1641798000";"10.01.2022 09:00";"313,92"
"1641801600";"10.01.2022 10:00";"315"
"1641805200";"10.01.2022 11:00";"310,41"
"1641808800";"10.01.2022 12:00";"310,08"
"1641812400";"10.01.2022 13:00";"300"
"1641816000";"10.01.2022 14:00";"297,01"
"1641819600";"10.01.2022 15:00";"299,96"
"1641823200";"10.01.2022 16:00";"306,45"
"1641826800";"10.01.2022 17:00";"302,73"
"1641830400";"10.01.2022 18:00";"315,47"
"1641834000";"10.01.2022 19:00";"310,82"
"1641837600";"10.01.2022 20:00";"294,98"
"1641841200";"10.01.2022 21:00";"261,03"
"1641844800";"10.01.2022 22:00";"242,23"
"1641848400";"10.01.2022 23:00";"211,83"
"1641852000";"11.01.2022 00:00";"150,09"
"1641855600";"11.01.2022 01:00";"147,5"
"1641859200";"11.01.2022 02:00";"143,76"
"1641862800";"11.01.2022 03:00";"140,21"
"1641866400";"11.01.2022 04:00";"139,97"
"1641870000";"11.01.2022 05:00";"141,56"
"1641873600";"11.01.2022 06:00";"200,01"
"1641877200";"11.01.2022 07:00";"221,44"
"1641880800";"11.01.2022 08:00";"221,47"
"1641884400";"11.01.2022 09:00";"221,47"
"1641888000";"11.01.2022 10:00";"221,47"
"1641891600";"11.01.2022 11:00";"221,44"
"1641895200";"11.01.2022 12:00";"216,98"
"1641898800";"11.01.2022 13:00";"221,43"
"1641902400";"11.01.2022 14:00";"221,43"
"1641906000";"11.01.2022 15:00";"221,33"
"1641909600";"11.01.2022 16:00";"221,41"
"1641913200";"11.01.2022 17:00";"221,43"
"1641916800";"11.01.2022 18:00";"221,48"
"1641920400";"11.01.2022 19:00";"221,45"
"1641924000";"11.01.2022 20:00";"221,41"
"1641927600";"11.01.2022 21:00";"216,99"
"1641931200";"11.01.2022 22:00";"153,63"
"1641934800";"11.01.2022 23:00";"150,56"
"1641938400";"12.01.2022 00:00";"143,07"
"1641942000";"12.01.2022 01:00";"147,62"
"1641945600";"12.01.2022 02:00";"183,98"
"1641949200";"12.01.2022 03:00";"183,06"
"1641952800";"12.01.2022 04:00";"140,07"
"1641956400";"12.01.2022 05:00";"178,33"
"1641960000";"12.01.2022 06:00";"193,5"
"1641963600";"12.01.2022 07:00";"208,1"
"1641967200";"12.01.2022 08:00";"212,25"
"1641970800";"12.01.2022 09:00";"212,27"
"1641974400";"12.01.2022 10:00";"212,26"
"1641978000";"12.01.2022 11:00";"212,23"
"1641981600";"12.01.2022 12:00";"211,99"
"1641985200";"12.01.2022 13:00";"212,21"
"1641988800";"12.01.2022 14:00";"208,09"
"1641992400";"12.01.2022 15:00";"208,09"
"1641996000";"12.01.2022 16:00";"212,24"
"1641999600";"12.01.2022 17:00";"212,24"
"1642003200";"12.01.2022 18:00";"212,25"
"1642006800";"12.01.2022 19:00";"110,46"
"1642010400";"12.01.2022 20:00";"87,04"
"1642014000";"12.01.2022 21:00";"199,42"
"1642017600";"12.01.2022 22:00";"191,5"
"1642021200";"12.01.2022 23:00";"129,93"
"1642024800";"13.01.2022 00:00";"87,07"
"1642028400";"13.01.2022 01:00";"117,96"
"1642032000";"13.01.2022 02:00";"101,04"
"1642035600";"13.01.2022 03:00";"94,3"
"1642039200";"13.01.2022 04:00";"93,64"
"1642042800";"13.01.2022 05:00";"92,58"
"1642046400";"13.01.2022 06:00";"101,05"
"1642050000";"13.01.2022 07:00";"192,03"
"1642053600";"13.01.2022 08:00";"215,24"
"1642057200";"13.01.2022 09:00";"196,88"
"1642060800";"13.01.2022 10:00";"196,88"
"1642064400";"13.01.2022 11:00";"180,08"
"1642068000";"13.01.2022 12:00";"170,16"
"1642071600";"13.01.2022 13:00";"152,53"
"1642075200";"13.01.2022 14:00";"134,13"
"1642078800";"13.01.2022 15:00";"171,01"
"1642082400";"13.01.2022 16:00";"196,82"
"1642086000";"13.01.2022 17:00";"196,85"
"1642089600";"13.01.2022 18:00";"175,09"
"1642093200";"13.01.2022 19:00";"196,82"
"1642096800";"13.01.2022 20:00";"196,84"
"1642100400";"13.01.2022 21:00";"175,01"
"1642104000";"13.01.2022 22:00";"132,16"
"1642107600";"13.01.2022 23:00";"110,4"
"1642111200";"14.01.2022 00:00";"97,08"
"1642114800";"14.01.2022 01:00";"89,6"
"1642118400";"14.01.2022 02:00";"12,56"
"1642122000";"14.01.2022 03:00";"30,26"
"1642125600";"14.01.2022 04:00";"11,42"
"1642129200";"14.01.2022 05:00";"13,18"
"1642132800";"14.01.2022 06:00";"88,22"
"1642136400";"14.01.2022 07:00";"88,43"
"1642140000";"14.01.2022 08:00";"106,89"
"1642143600";"14.01.2022 09:00";"155,01"
"1642147200";"14.01.2022 10:00";"189,31"
"1642150800";"14.01.2022 11:00";"162,92"
"1642154400";"14.01.2022 12:00";"112,12"
"1642158000";"14.01.2022 13:00";"114,34"
"1642161600";"14.01.2022 14:00";"89,66"
"1642165200";"14.01.2022 15:00";"106,9"
"1642168800";"14.01.2022 16:00";"179,66"
"1642172400";"14.01.2022 17:00";"133,69"
"1642176000";"14.01.2022 18:00";"141,68"
"1642179600";"14.01.2022 19:00";"140,8"
"1642183200";"14.01.2022 20:00";"121,58"
"1642186800";"14.01.2022 21:00";"121,57"
"1642190400";"14.01.2022 22:00";"44,21"
"1642194000";"14.01.2022 23:00";"60,08"
"1642197600";"15.01.2022 00:00";"80"
"1642201200";"15.01.2022 01:00";"17,27"
"1642204800";"15.01.2022 02:00";"93"
"1642208400";"15.01.2022 03:00";"93,99"
"1642212000";"15.01.2022 04:00";"92,98"
"1642215600";"15.01.2022 05:00";"90,14"
"1642219200";"15.01.2022 06:00";"50,07"
"1642222800";"15.01.2022 07:00";"80,1"
"1642226400";"15.01.2022 08:00";"134,02"
"1642230000";"15.01.2022 09:00";"150,03"
"1642233600";"15.01.2022 10:00";"200,07"
"1642237200";"15.01.2022 11:00";"203,52"
"1642240800";"15.01.2022 12:00";"202,3"
"1642244400";"15.01.2022 13:00";"157,91"
"1642248000";"15.01.2022 14:00";"153,04"
"1642251600";"15.01.2022 15:00";"150,5"
"1642255200";"15.01.2022 16:00";"179,91"
"1642258800";"15.01.2022 17:00";"220,89"
"1642262400";"15.01.2022 18:00";"253,76"
"1642266000";"15.01.2022 19:00";"209,84"
"1642269600";"15.01.2022 20:00";"153,67"
"1642273200";"15.01.2022 21:00";"144,95"
"1642276800";"15.01.2022 22:00";"157,35"
"1642280400";"15.01.2022 23:00";"176,42"
"1642284000";"16.01.2022 00:00";"118,92"
"1642287600";"16.01.2022 01:00";"110,06"
"1642291200";"16.01.2022 02:00";"90,25"
"1642294800";"16.01.2022 03:00";"87,84"
"1642298400";"16.01.2022 04:00";"88,5"
"1642302000";"16.01.2022 05:00";"89,39"
"1642305600";"16.01.2022 06:00";"90,2"
"1642309200";"16.01.2022 07:00";"89,58"
"1642312800";"16.01.2022 08:00";"88,27"
"1642316400";"16.01.2022 09:00";"111,44"
"1642320000";"16.01.2022 10:00";"129,46"
"1642323600";"16.01.2022 11:00";"125,99"
"1642327200";"16.01.2022 12:00";"131,83"
"1642330800";"16.01.2022 13:00";"140,03"
"1642334400";"16.01.2022 14:00";"110,28"
"1642338000";"16.01.2022 15:00";"99,54"
"1642341600";"16.01.2022 16:00";"112,19"
"1642345200";"16.01.2022 17:00";"115"
"1642348800";"16.01.2022 18:00";"125,42"
"1642352400";"16.01.2022 19:00";"112,4"
"1642356000";"16.01.2022 20:00";"97,49"
"1642359600";"16.01.2022 21:00";"90,14"
"1642363200";"16.01.2022 22:00";"97,09"
"1642366800";"16.01.2022 23:00";"93,85"
"1642370400";"17.01.2022 00:00";"87,2"
"1642374000";"17.01.2022 01:00";"48,95"
"1642377600";"17.01.2022 02:00";"34"
"1642381200";"17.01.2022 03:00";"15,94"
"1642384800";"17.01.2022 04:00";"10,09"
"1642388400";"17.01.2022 05:00";"37,95"
"1642392000";"17.01.2022 06:00";"74,61"
"1642395600";"17.01.2022 07:00";"99,29"
"1642399200";"17.01.2022 08:00";"99,08"
"1642402800";"17.01.2022 09:00";"145,02"
"1642406400";"17.01.2022 10:00";"111,25"
"1642410000";"17.01.2022 11:00";"110,94"
"1642413600";"17.01.2022 12:00";"111,25"
"1642417200";"17.01.2022 13:00";"107,94"
"1642420800";"17.01.2022 14:00";"145"
"1642424400";"17.01.2022 15:00";"127,38"
"1642428000";"17.01.2022 16:00";"145,08"
"1642431600";"17.01.2022 17:00";"145,09"
"1642435200";"17.01.2022 18:00";"150,62"
"1642438800";"17.01.2022 19:00";"149,96"
"1642442400";"17.01.2022 20:00";"144,76"
"1642446000";"17.01.2022 21:00";"143,57"
"1642449600";"17.01.2022 22:00";"138,39"
"1642453200";"17.01.2022 23:00";"136,03"
"1642456800";"18.01.2022 00:00";"80,07"
"1642460400";"18.01.2022 01:00";"90,14"
"1642464000";"18.01.2022 02:00";"85,15"
"1642467600";"18.01.2022 03:00";"78,9"
"1642471200";"18.01.2022 04:00";"92,96"
"1642474800";"18.01.2022 05:00";"100,37"
"1642478400";"18.01.2022 06:00";"145,35"
"1642482000";"18.01.2022 07:00";"179,99"
"1642485600";"18.01.2022 08:00";"267,14"
"1642489200";"18.01.2022 09:00";"287,33"
"1642492800";"18.01.2022 10:00";"248,06"
"1642496400";"18.01.2022 11:00";"200,09"
"1642500000";"18.01.2022 12:00";"200,04"
"1642503600";"18.01.2022 13:00";"166,18"
"1642507200";"18.01.2022 14:00";"154,6"
"1642510800";"18.01.2022 15:00";"213,44"
"1642514400";"18.01.2022 16:00";"213,42"
"1642518000";"18.01.2022 17:00";"213,48"
"1642521600";"18.01.2022 18:00";"213,42"
"1642525200";"18.01.2022 19:00";"213,43"
"1642528800";"18.01.2022 20:00";"143,77"
"1642532400";"18.01.2022 21:00";"127,43"
"1642536000";"18.01.2022 22:00";"213,45"
"1642539600";"18.01.2022 23:00";"140,09"
"1642543200";"19.01.2022 00:00";"75,07"
"1642546800";"19.01.2022 01:00";"121,12"
"1642550400";"19.01.2022 02:00";"99,93"
"1642554000";"19.01.2022 03:00";"92,05"
"1642557600";"19.01.2022 04:00";"94,97"
"1642561200";"19.01.2022 05:00";"98,99"
"1642564800";"19.01.2022 06:00";"122,82"
"1642568400";"19.01.2022 07:00";"193,64"
"1642572000";"19.01.2022 08:00";"193,65"
"1642575600";"19.01.2022 09:00";"193,7"
"1642579200";"19.01.2022 10:00";"193,64"
"1642582800";"19.01.2022 11:00";"193,62"
"1642586400";"19.01.2022 12:00";"193,62"
"1642590000";"19.01.2022 13:00";"170,14"
"1642593600";"19.01.2022 14:00";"180,03"
"1642597200";"19.01.2022 15:00";"181,38"
"1642600800";"19.01.2022 16:00";"193,61"
"1642604400";"19.01.2022 17:00";"193,66"
"1642608000";"19.01.2022 18:00";"193,63"
"1642611600";"19.01.2022 19:00";"130,02"
"1642615200";"19.01.2022 20:00";"193,62"
"1642618800";"19.01.2022 21:00";"174,07"
"1642622400";"19.01.2022 22:00";"108,2"
"1642626000";"19.01.2022 23:00";"60,09"
"1642629600";"20.01.2022 00:00";"60,1"
"1642633200";"20.01.2022 01:00";"90,05"
"1642636800";"20.01.2022 02:00";"9,28"
"1642640400";"20.01.2022 03:00";"8,89"
"1642644000";"20.01.2022 04:00";"8,92"
"1642647600";"20.01.2022 05:00";"77,38"
"1642651200";"20.01.2022 06:00";"101,23"
"1642654800";"20.01.2022 07:00";"104,31"
"1642658400";"20.01.2022 08:00";"116,76"
"1642662000";"20.01.2022 09:00";"121,54"
"1642665600";"20.01.2022 10:00";"130,27"
"1642669200";"20.01.2022 11:00";"129,17"
"1642672800";"20.01.2022 12:00";"121,36"
"1642676400";"20.01.2022 13:00";"133,56"
"1642680000";"20.01.2022 14:00";"134,85"
"1642683600";"20.01.2022 15:00";"121,58"
"1642687200";"20.01.2022 16:00";"113,79"
"1642690800";"20.01.2022 17:00";"113,3"
"1642694400";"20.01.2022 18:00";"134,82"
"1642698000";"20.01.2022 19:00";"132,26"
"1642701600";"20.01.2022 20:00";"113,28"
"1642705200";"20.01.2022 21:00";"99,37"
"1642708800";"20.01.2022 22:00";"92,41"
"1642712400";"20.01.2022 23:00";"87,77"
"1642716000";"21.01.2022 00:00";"75,03"
"1642719600";"21.01.2022 01:00";"77,39"
"1642723200";"21.01.2022 02:00";"75,6"
"1642726800";"21.01.2022 03:00";"75,11"
"1642730400";"21.01.2022 04:00";"75,14"
"1642734000";"21.01.2022 05:00";"88,57"
"1642737600";"21.01.2022 06:00";"82,76"
"1642741200";"21.01.2022 07:00";"117,75"
"1642744800";"21.01.2022 08:00";"145,98"
"1642748400";"21.01.2022 09:00";"165"
"1642752000";"21.01.2022 10:00";"145,09"
"1642755600";"21.01.2022 11:00";"144,15"
"1642759200";"21.01.2022 12:00";"142,68"
"1642762800";"21.01.2022 13:00";"141,36"
"1642766400";"21.01.2022 14:00";"144,47"
"1642770000";"21.01.2022 15:00";"142,72"
"1642773600";"21.01.2022 16:00";"143,76"
"1642777200";"21.01.2022 17:00";"145,69"
"1642780800";"21.01.2022 18:00";"157,12"
"1642784400";"21.01.2022 19:00";"154,52"
"1642788000";"21.01.2022 20:00";"142,31"
"1642791600";"21.01.2022 21:00";"136,78"
"1642795200";"21.01.2022 22:00";"132,25"
"1642798800";"21.01.2022 23:00";"133,59"
"1642802400";"22.01.2022 00:00";"120,01"
"1642806000";"22.01.2022 01:00";"123,58"
"1642809600";"22.01.2022 02:00";"120,3"
"1642813200";"22.01.2022 03:00";"119,99"
"1642816800";"22.01.2022 04:00";"121,8"
"1642820400";"22.01.2022 05:00";"123,57"
"1642824000";"22.01.2022 06:00";"123,68"
"1642827600";"22.01.2022 07:00";"120"
"1642831200";"22.01.2022 08:00";"148,35"
"1642834800";"22.01.2022 09:00";"181,54"
"1642838400";"22.01.2022 10:00";"202,48"
"1642842000";"22.01.2022 11:00";"206,18"
"1642845600";"22.01.2022 12:00";"204,66"
"1642849200";"22.01.2022 13:00";"196,01"
"1642852800";"22.01.2022 14:00";"184,01"
"1642856400";"22.01.2022 15:00";"185,88"
"1642860000";"22.01.2022 16:00";"191,78"
"1642863600";"22.01.2022 17:00";"197,25"
"1642867200";"22.01.2022 18:00";"222,31"
"1642870800";"22.01.2022 19:00";"225,28"
"1642874400";"22.01.2022 20:00";"179,88"
"1642878000";"22.01.2022 21:00";"145,78"
"1642881600";"22.01.2022 22:00";"190,31"
"1642885200";"22.01.2022 23:00";"190,36"
"1642888800";"23.01.2022 00:00";"134,65"
"1642892400";"23.01.2022 01:00";"121,29"
"1642896000";"23.01.2022 02:00";"107,7"
"1642899600";"23.01.2022 03:00";"93,75"
"1642903200";"23.01.2022 04:00";"93,35"
"1642906800";"23.01.2022 05:00";"93,75"
"1642910400";"23.01.2022 06:00";"110,03"
"1642914000";"23.01.2022 07:00";"105,26"
"1642917600";"23.01.2022 08:00";"111,92"
"1642921200";"23.01.2022 09:00";"133,46"
"1642924800";"23.01.2022 10:00";"139,14"
"1642928400";"23.01.2022 11:00";"187,81"
"1642932000";"23.01.2022 12:00";"189,99"
"1642935600";"23.01.2022 13:00";"190,71"
"1642939200";"23.01.2022 14:00";"186,29"
"1642942800";"23.01.2022 15:00";"184,49"
"1642946400";"23.01.2022 16:00";"190"
"1642950000";"23.01.2022 17:00";"198,36"
"1642953600";"23.01.2022 18:00";"214,95"
"1642957200";"23.01.2022 19:00";"205,85"
"1642960800";"23.01.2022 20:00";"198,66"
"1642964400";"23.01.2022 21:00";"198,62"
"1642968000";"23.01.2022 22:00";"183,67"
"1642971600";"23.01.2022 23:00";"110,34"
"1642975200";"24.01.2022 00:00";"110,09"
"1642978800";"24.01.2022 01:00";"12,23"
"1642982400";"24.01.2022 02:00";"11,67"
"1642986000";"24.01.2022 03:00";"11,06"
"1642989600";"24.01.2022 04:00";"10,51"
"1642993200";"24.01.2022 05:00";"11,02"
"1642996800";"24.01.2022 06:00";"143,21"
"1643000400";"24.01.2022 07:00";"198,45"
"1643004000";"24.01.2022 08:00";"198,45"
"1643007600";"24.01.2022 09:00";"198,47"
"1643011200";"24.01.2022 10:00";"198,46"
"1643014800";"24.01.2022 11:00";"198,44"
"1643018400";"24.01.2022 12:00";"198,45"
"1643022000";"24.01.2022 13:00";"198,44"
"1643025600";"24.01.2022 14:00";"198,41"
"1643029200";"24.01.2022 15:00";"198,41"
"1643032800";"24.01.2022 16:00";"198,43"
"1643036400";"24.01.2022 17:00";"198,49"
"1643040000";"24.01.2022 18:00";"198,45"
"1643043600";"24.01.2022 19:00";"198,45"
"1643047200";"24.01.2022 20:00";"155,09"
"1643050800";"24.01.2022 21:00";"155,02"
"1643054400";"24.01.2022 22:00";"198,46"
"1643058000";"24.01.2022 23:00";"158,38"
"1643061600";"25.01.2022 00:00";"100,06"
"1643065200";"25.01.2022 01:00";"143,29"
"1643068800";"25.01.2022 02:00";"136,57"
"1643072400";"25.01.2022 03:00";"129,95"
"1643076000";"25.01.2022 04:00";"129,94"
"1643079600";"25.01.2022 05:00";"130,75"
"1643083200";"25.01.2022 06:00";"143,16"
"1643086800";"25.01.2022 07:00";"137,61"
"1643090400";"25.01.2022 08:00";"148,9"
"1643094000";"25.01.2022 09:00";"165,48"
"1643097600";"25.01.2022 10:00";"152,76"
"1643101200";"25.01.2022 11:00";"159,9"
"1643104800";"25.01.2022 12:00";"173,45"
"1643108400";"25.01.2022 13:00";"174,72"
"1643112000";"25.01.2022 14:00";"172,45"
"1643115600";"25.01.2022 15:00";"177,11"
"1643119200";"25.01.2022 16:00";"185,04"
"1643122800";"25.01.2022 17:00";"250,77"
"1643126400";"25.01.2022 18:00";"259,95"
"1643130000";"25.01.2022 19:00";"254,85"
"1643133600";"25.01.2022 20:00";"198,44"
"1643137200";"25.01.2022 21:00";"148,43"
"1643140800";"25.01.2022 22:00";"144,98"
"1643144400";"25.01.2022 23:00";"140,58"
"1643148000";"26.01.2022 00:00";"134,13"
"1643151600";"26.01.2022 01:00";"155,78"
"1643155200";"26.01.2022 02:00";"113,43"
"1643158800";"26.01.2022 03:00";"88,65"
"1643162400";"26.01.2022 04:00";"113,43"
"1643166000";"26.01.2022 05:00";"151,5"
"1643169600";"26.01.2022 06:00";"215,09"
"1643173200";"26.01.2022 07:00";"226,24"
"1643176800";"26.01.2022 08:00";"226,28"
"1643180400";"26.01.2022 09:00";"290,51"
"1643184000";"26.01.2022 10:00";"226,3"
"1643187600";"26.01.2022 11:00";"226,27"
"1643191200";"26.01.2022 12:00";"226,21"
"1643194800";"26.01.2022 13:00";"226,21"
"1643198400";"26.01.2022 14:00";"147"
"1643202000";"26.01.2022 15:00";"115,78"
"1643205600";"26.01.2022 16:00";"119,96"
"1643209200";"26.01.2022 17:00";"125,89"
"1643212800";"26.01.2022 18:00";"134,31"
"1643216400";"26.01.2022 19:00";"131,94"
"1643220000";"26.01.2022 20:00";"141,43"
"1643223600";"26.01.2022 21:00";"143,93"
"1643227200";"26.01.2022 22:00";"171,34"
"1643230800";"26.01.2022 23:00";"142,94"
"1643234400";"27.01.2022 00:00";"101,94"
"1643238000";"27.01.2022 01:00";"98,99"
"1643241600";"27.01.2022 02:00";"104,79"
"1643245200";"27.01.2022 03:00";"98,91"
"1643248800";"27.01.2022 04:00";"100,94"
"1643252400";"27.01.2022 05:00";"98,92"
"1643256000";"27.01.2022 06:00";"103,79"
"1643259600";"27.01.2022 07:00";"139,55"
"1643263200";"27.01.2022 08:00";"215"
"1643266800";"27.01.2022 09:00";"219,71"
"1643270400";"27.01.2022 10:00";"228,93"
"1643274000";"27.01.2022 11:00";"230"
"1643277600";"27.01.2022 12:00";"225,09"
"1643281200";"27.01.2022 13:00";"177,07"
"1643284800";"27.01.2022 14:00";"148,9"
"1643288400";"27.01.2022 15:00";"225,05"
"1643292000";"27.01.2022 16:00";"148,99"
"1643295600";"27.01.2022 17:00";"174,51"
"1643299200";"27.01.2022 18:00";"200,02"
"1643302800";"27.01.2022 19:00";"142,43"
"1643306400";"27.01.2022 20:00";"184,02"
"1643310000";"27.01.2022 21:00";"109,02"
"1643313600";"27.01.2022 22:00";"98,47"
"1643317200";"27.01.2022 23:00";"98,56"
"1643320800";"28.01.2022 00:00";"89,39"
"1643324400";"28.01.2022 01:00";"92,12"
"1643328000";"28.01.2022 02:00";"81,93"
"1643331600";"28.01.2022 03:00";"73,08"
"1643335200";"28.01.2022 04:00";"73,97"
"1643338800";"28.01.2022 05:00";"82,1"
"1643342400";"28.01.2022 06:00";"100,91"
"1643346000";"28.01.2022 07:00";"142,47"
"1643349600";"28.01.2022 08:00";"142,46"
"1643353200";"28.01.2022 09:00";"142,46"
"1643356800";"28.01.2022 10:00";"142,57"
"1643360400";"28.01.2022 11:00";"143,36"
"1643364000";"28.01.2022 12:00";"143,79"
"1643367600";"28.01.2022 13:00";"143,24"
"1643371200";"28.01.2022 14:00";"142,48"
"1643374800";"28.01.2022 15:00";"142,27"
"1643378400";"28.01.2022 16:00";"143,14"
"1643382000";"28.01.2022 17:00";"148,82"
"1643385600";"28.01.2022 18:00";"150,17"
"1643389200";"28.01.2022 19:00";"147,47"
"1643392800";"28.01.2022 20:00";"142,07"
"1643396400";"28.01.2022 21:00";"136,92"
"1643400000";"28.01.2022 22:00";"177,8"
"1643403600";"28.01.2022 23:00";"142,25"
"1643407200";"29.01.2022 00:00";"123,36"
"1643410800";"29.01.2022 01:00";"126,93"
"1643414400";"29.01.2022 02:00";"115,01"
"1643418000";"29.01.2022 03:00";"105,64"
"1643421600";"29.01.2022 04:00";"110,09"
"1643425200";"29.01.2022 05:00";"112,96"
"1643428800";"29.01.2022 06:00";"114,7"
"1643432400";"29.01.2022 07:00";"188,44"
"1643436000";"29.01.2022 08:00";"220,1"
"1643439600";"29.01.2022 09:00";"170,06"
"1643443200";"29.01.2022 10:00";"220"
"1643446800";"29.01.2022 11:00";"219,95"
"1643450400";"29.01.2022 12:00";"170,05"
"1643454000";"29.01.2022 13:00";"134,52"
"1643457600";"29.01.2022 14:00";"131,35"
"1643461200";"29.01.2022 15:00";"122,34"
"1643464800";"29.01.2022 16:00";"142,3"
"1643468400";"29.01.2022 17:00";"150"
"1643472000";"29.01.2022 18:00";"134,7"
"1643475600";"29.01.2022 19:00";"127"
"1643479200";"29.01.2022 20:00";"130,22"
"1643482800";"29.01.2022 21:00";"101,29"
"1643486400";"29.01.2022 22:00";"94,97"
"1643490000";"29.01.2022 23:00";"88,81"
"1643493600";"30.01.2022 00:00";"65,06"
"1643497200";"30.01.2022 01:00";"58,13"
"1643500800";"30.01.2022 02:00";"44,78"
"1643504400";"30.01.2022 03:00";"34,93"
"1643508000";"30.01.2022 04:00";"31,96"
"1643511600";"30.01.2022 05:00";"34,71"
"1643515200";"30.01.2022 06:00";"42,99"
"1643518800";"30.01.2022 07:00";"53,3"
"1643522400";"30.01.2022 08:00";"58,86"
"1643526000";"30.01.2022 09:00";"72,87"
"1643529600";"30.01.2022 10:00";"88,91"
"1643533200";"30.01.2022 11:00";"92,83"
"1643536800";"30.01.2022 12:00";"92,05"
"1643540400";"30.01.2022 13:00";"89,44"
"1643544000";"30.01.2022 14:00";"88,45"
"1643547600";"30.01.2022 15:00";"90,06"
"1643551200";"30.01.2022 16:00";"91,76"
"1643554800";"30.01.2022 17:00";"99,09"
"1643558400";"30.01.2022 18:00";"95,27"
"1643562000";"30.01.2022 19:00";"97,77"
"1643565600";"30.01.2022 20:00";"97,81"
"1643569200";"30.01.2022 21:00";"92,94"
"1643572800";"30.01.2022 22:00";"98,62"
"1643576400";"30.01.2022 23:00";"90,7"
"1643580000";"31.01.2022 00:00";"79,26"
"1643583600";"31.01.2022 01:00";"50,39"
"1643587200";"31.01.2022 02:00";"48,33"
"1643590800";"31.01.2022 03:00";"55,89"
"1643594400";"31.01.2022 04:00";"60,09"
"1643598000";"31.01.2022 05:00";"97,73"
"1643601600";"31.01.2022 06:00";"132,85"
"1643605200";"31.01.2022 07:00";"182,03"
"1643608800";"31.01.2022 08:00";"234,24"
"1643612400";"31.01.2022 09:00";"242,95"
"1643616000";"31.01.2022 10:00";"245,87"
"1643619600";"31.01.2022 11:00";"242,13"
"1643623200";"31.01.2022 12:00";"237,58"
"1643626800";"31.01.2022 13:00";"230"
"1643630400";"31.01.2022 14:00";"216,2"
"1643634000";"31.01.2022 15:00";"197,54"
"1643637600";"31.01.2022 16:00";"190,95"
"1643641200";"31.01.2022 17:00";"225,05"
"1643644800";"31.01.2022 18:00";"240,67"
"1643648400";"31.01.2022 19:00";"247,84"
"1643652000";"31.01.2022 20:00";"218,65"
"1643655600";"31.01.2022 21:00";"174,98"
"1643659200";"31.01.2022 22:00";"169,12"
"1643662800";"31.01.2022 23:00";"151,25"
"1643666400";"01.02.2022 00:00";"142,18"
